{

  "name": "Analgin",
    "pharm": "Darnytsya",
    "group": "Painkiller",
    "analogs": [
      {
        "analog": "Pentalgin"
      },
      {
        "analog": "Andupal"
      }
    ],
    "versions": [
      {
        "version": "Tablets"
      }
    ],
    "certificate": {
      "number": "6331/01/01",
      "dateOfIssue": "19.04.2017",
      "endDate": "19.04.2022",
      "organisation": "MOZ"
    },
    "package": {
      "type": "Blister",
      "quantity": 10,
      "price": 134.6
    },
    "dosages": {
      "dosage": 12.5,
      "periodicity": "2t/day"
    }


}
